"../Assets/NoeTest.png"
<svg version="1.1" id="Layer_1" xmlns="http://www.w3.org/2000/svg" xmlns:xlink="http://www.w3.org/1999/xlink" x="0px" y="0px"
	 width="2000px" height="1200px" viewBox="0 0 2000 1200" enable-background="new 0 0 2000 1200" xml:space="preserve">
<rect x="241" y="1159" fill="#FFFFFF" stroke="#000000" stroke-miterlimit="10" width="458" height="8"/>
<rect x="1000" y="827" fill="#FFFFFF" stroke="#000000" stroke-miterlimit="10" width="65" height="332"/>
<rect x="1121" y="845" fill="#FFFFFF" stroke="#000000" stroke-miterlimit="10" width="258" height="50"/>
<rect x="1733" y="1123" fill="#FFFFFF" stroke="#000000" stroke-miterlimit="10" width="236" height="36"/>
<rect x="1325" y="1025" fill="#FFFFFF" stroke="#000000" stroke-miterlimit="10" width="264" height="72"/>
<rect x="825" y="855" fill="#FFFFFF" stroke="#000000" stroke-miterlimit="10" width="152" height="100"/>
<rect x="1761" y="870" fill="#FFFFFF" stroke="#000000" stroke-miterlimit="10" width="218" height="35"/>
<rect x="619" y="975" fill="#FFFFFF" stroke="#000000" stroke-miterlimit="10" width="192" height="166"/>
<rect x="17" y="955" fill="#FFFFFF" stroke="#000000" stroke-miterlimit="10" width="300" height="38"/>
<rect x="1517" y="465" fill="#FFFFFF" stroke="#000000" stroke-miterlimit="10" width="84" height="324"/>
<rect x="659" y="600" fill="#FFFFFF" stroke="#000000" stroke-miterlimit="10" width="286" height="43"/>
<rect x="1250" y="643" fill="#FFFFFF" stroke="#000000" stroke-miterlimit="10" width="75" height="48"/>
<rect x="441" y="789" fill="#FFFFFF" stroke="#000000" stroke-miterlimit="10" width="96" height="38"/>
<rect x="167" y="721" fill="#FFFFFF" stroke="#000000" stroke-miterlimit="10" width="128" height="26"/>
<rect x="79" y="569" fill="#FFFFFF" stroke="#000000" stroke-miterlimit="10" width="88" height="52.5"/>
<rect x="379" y="465" fill="#FFFFFF" stroke="#000000" stroke-miterlimit="10" width="62" height="70"/>
<rect x="583" y="371" fill="#FFFFFF" stroke="#000000" stroke-miterlimit="10" width="186" height="28"/>
<rect x="167" y="253" fill="#FFFFFF" stroke="#000000" stroke-miterlimit="10" width="128" height="36"/>
<rect x="847" y="167" fill="#FFFFFF" stroke="#000000" stroke-miterlimit="10" width="194" height="40"/>
<rect x="1325" y="353" fill="#FFFFFF" stroke="#000000" stroke-miterlimit="10" width="148" height="32"/>
<rect x="1637" y="207" fill="#FFFFFF" stroke="#000000" stroke-miterlimit="10" width="192" height="64"/>
<rect x="1839" y="61" fill="#FFFFFF" stroke="#000000" stroke-miterlimit="10" width="106" height="74"/>
<rect x="1109" y="331" fill="#FFFFFF" stroke="#000000" stroke-miterlimit="10" width="88" height="106"/>
<rect x="1250" y="89" fill="#FFFFFF" stroke="#000000" stroke-miterlimit="10" width="207" height="78"/>
<rect x="27" y="77" fill="#FFFFFF" stroke="#000000" stroke-miterlimit="10" width="214" height="90"/>
<rect x="410" y="167" fill="#FFFFFF" stroke="#000000" stroke-miterlimit="10" width="147" height="40"/>
<circle fill="#FFFFFF" stroke="#000000" stroke-miterlimit="10" cx="461.5" cy="98.5" r="0.5"/>
<circle fill="#FFFFFF" stroke="#000000" stroke-miterlimit="10" cx="944.5" cy="122.5" r="0.5"/>
<circle fill="#FFFFFF" stroke="#000000" stroke-miterlimit="10" cx="1399.5" cy="315.5" r="0.5"/>
<circle fill="#FFFFFF" stroke="#000000" stroke-miterlimit="10" cx="901.5" cy="808.5" r="0.5"/>
<circle fill="#FFFFFF" stroke="#000000" stroke-miterlimit="10" cx="221.5" cy="643.5" r="0.5"/>
<ellipse fill="#FFFFFF" stroke="#000000" stroke-miterlimit="10" cx="399.5" cy="417" rx="10.5" ry="6"/>
<ellipse fill="#FFFFFF" stroke="#000000" stroke-miterlimit="10" cx="1132" cy="280" rx="11" ry="9"/>
<circle fill="#FFFFFF" stroke="#000000" stroke-miterlimit="10" cx="1552" cy="430" r="7"/>
<ellipse fill="#FFFFFF" stroke="#000000" stroke-miterlimit="10" cx="1465" cy="995" rx="8" ry="12"/>
<ellipse fill="#FFFFFF" stroke="#000000" stroke-miterlimit="10" cx="893.25" cy="799" rx="8.25" ry="10"/>
<ellipse fill="#FFFFFF" stroke="#000000" stroke-miterlimit="10" cx="687.5" cy="904" rx="11.5" ry="9"/>
<ellipse fill="#FFFFFF" stroke="#000000" stroke-miterlimit="10" cx="500.5" cy="1106" rx="11.5" ry="9"/>
</svg>
