^C:\USERS\JAKOB\DOCUMENTS\IMT3601-11HBSPA-GROUP3\IMT3601-GROUP3\DEBUG\AI.OBJ|C:\USERS\JAKOB\DOCUMENTS\IMT3601-11HBSPA-GROUP3\IMT3601-GROUP3\DEBUG\AUDIO.OBJ|C:\USERS\JAKOB\DOCUMENTS\IMT3601-11HBSPA-GROUP3\IMT3601-GROUP3\DEBUG\GAMECONTROLER.OBJ|C:\USERS\JAKOB\DOCUMENTS\IMT3601-11HBSPA-GROUP3\IMT3601-GROUP3\DEBUG\ITEM.OBJ|C:\USERS\JAKOB\DOCUMENTS\IMT3601-11HBSPA-GROUP3\IMT3601-GROUP3\DEBUG\MAIN.OBJ|C:\USERS\JAKOB\DOCUMENTS\IMT3601-11HBSPA-GROUP3\IMT3601-GROUP3\DEBUG\MENUCONTROLER.OBJ|C:\USERS\JAKOB\DOCUMENTS\IMT3601-11HBSPA-GROUP3\IMT3601-GROUP3\DEBUG\NETWORK.OBJ|C:\USERS\JAKOB\DOCUMENTS\IMT3601-11HBSPA-GROUP3\IMT3601-GROUP3\DEBUG\OBJECT.OBJ|C:\USERS\JAKOB\DOCUMENTS\IMT3601-11HBSPA-GROUP3\IMT3601-GROUP3\DEBUG\OPTIONSSTATE.OBJ|C:\USERS\JAKOB\DOCUMENTS\IMT3601-11HBSPA-GROUP3\IMT3601-GROUP3\DEBUG\PLAYER.OBJ|C:\USERS\JAKOB\DOCUMENTS\IMT3601-11HBSPA-GROUP3\IMT3601-GROUP3\DEBUG\SCENERY.OBJ|C:\USERS\JAKOB\DOCUMENTS\IMT3601-11HBSPA-GROUP3\IMT3601-GROUP3\DEBUG\TEXTURE.OBJ
C:\USERS\JAKOB\DOCUMENTS\IMT3601-11HBSPA-GROUP3\DEBUG\IMT3601-GROUP3.ILK
C:\USERS\JAKOB\DOCUMENTS\IMT3601-11HBSPA-GROUP3\DEBUG\IMT3601-GROUP3.EXE
C:\USERS\JAKOB\DOCUMENTS\IMT3601-11HBSPA-GROUP3\DEBUG\IMT3601-GROUP3.PDB
